<svg width="138" height="99" viewBox="0 0 138 99" fill="none" xmlns="http://www.w3.org/2000/svg">
<g filter="url(#filter0_dddd)">
<path d="M87.9711 0.124897C79.6376 0.853069 77.3452 3.63091 70.7916 6.38179C22.813 26.447 14.021 28.7125 19.3879 30.9779C19.5767 30.9779 17.5 30.1958 70.7377 52.4725C79.287 56.0595 93.4999 64.5009 108.845 52.2028C131.149 34.3221 117.098 -2.41023 87.9711 0.124897Z" fill="#B9A4E6"/>
<path d="M77.9924 17.682C76.2394 19.5698 74.8909 21.8353 74.1358 24.3704C73.6773 25.9346 73.4076 27.5528 73.4076 29.2788C73.4076 29.6564 73.4346 30.034 73.4615 30.3846C73.7043 34.3221 75.2955 37.909 77.7766 40.6599C79.3409 42.3859 81.2287 43.8153 83.3593 44.7862C85.5169 45.7841 87.9172 46.3505 90.4523 46.3505C92.9874 46.3505 95.3877 45.7841 97.5453 44.7862C99.6758 43.8153 101.591 42.3859 103.128 40.6599C105.609 37.8821 107.2 34.3221 107.443 30.3846C107.47 30.007 107.497 29.6564 107.497 29.2788C107.497 27.5798 107.227 25.9346 106.769 24.3704C106.014 21.8353 104.665 19.5698 102.912 17.682C99.7837 14.3108 95.3607 12.2072 90.3983 12.2072C85.5708 12.2072 81.1209 14.3108 77.9924 17.682Z" fill="#6E1282"/>
</g>
<defs>
<filter id="filter0_dddd" x="0.131075" y="0.00012207" width="137.562" height="98.8516" filterUnits="userSpaceOnUse" color-interpolation-filters="sRGB">
<feFlood flood-opacity="0" result="BackgroundImageFix"/>
<feColorMatrix in="SourceAlpha" type="matrix" values="0 0 0 0 0 0 0 0 0 0 0 0 0 0 0 0 0 0 127 0"/>
<feOffset dy="2.76726"/>
<feGaussianBlur stdDeviation="1.1069"/>
<feColorMatrix type="matrix" values="0 0 0 0 0 0 0 0 0 0 0 0 0 0 0 0 0 0 0.0678834 0"/>
<feBlend mode="normal" in2="BackgroundImageFix" result="effect1_dropShadow"/>
<feColorMatrix in="SourceAlpha" type="matrix" values="0 0 0 0 0 0 0 0 0 0 0 0 0 0 0 0 0 0 127 0"/>
<feOffset dy="6.6501"/>
<feGaussianBlur stdDeviation="2.66004"/>
<feColorMatrix type="matrix" values="0 0 0 0 0 0 0 0 0 0 0 0 0 0 0 0 0 0 0.0909155 0"/>
<feBlend mode="normal" in2="effect1_dropShadow" result="effect2_dropShadow"/>
<feColorMatrix in="SourceAlpha" type="matrix" values="0 0 0 0 0 0 0 0 0 0 0 0 0 0 0 0 0 0 127 0"/>
<feOffset dy="12.5216"/>
<feGaussianBlur stdDeviation="5.00862"/>
<feColorMatrix type="matrix" values="0 0 0 0 0 0 0 0 0 0 0 0 0 0 0 0 0 0 0.109155 0"/>
<feBlend mode="normal" in2="effect2_dropShadow" result="effect3_dropShadow"/>
<feColorMatrix in="SourceAlpha" type="matrix" values="0 0 0 0 0 0 0 0 0 0 0 0 0 0 0 0 0 0 127 0"/>
<feOffset dy="22.3363"/>
<feGaussianBlur stdDeviation="8.93452"/>
<feColorMatrix type="matrix" values="0 0 0 0 0 0 0 0 0 0 0 0 0 0 0 0 0 0 0.132062 0"/>
<feBlend mode="normal" in2="effect3_dropShadow" result="effect4_dropShadow"/>
<feBlend mode="normal" in="SourceGraphic" in2="effect4_dropShadow" result="shape"/>
</filter>
</defs>
</svg>
