<svg width="110" height="40" viewBox="0 0 110 40" fill="none" xmlns="http://www.w3.org/2000/svg">
<path d="M65.5232 34.368L67.0749 32.12L73.7832 39.656H82.8867L71.0378 26.336L81.6215 10.912H73.3774L65.5232 22.36V0.816H58.7512V39.656H65.5232V34.368ZM39.4142 34.368L40.958 32.12L47.6742 39.656H56.7857L44.9288 26.336L55.5125 10.912H47.2684L39.4142 22.36V0.816H32.6422V39.656H39.4142V34.368ZM79.1546 24.912C79.1546 33.24 85.839 40 94.0911 40C102.335 40 109.02 33.24 109.02 24.912C109.02 16.576 102.335 9.824 94.0911 9.824C85.839 9.824 79.1546 16.576 79.1546 24.912ZM14.9365 9.824C6.68441 9.824 0 16.576 0 24.912C0 33.24 6.68441 40 14.9365 40C23.1806 40 29.865 33.24 29.865 24.912C29.865 16.576 23.1806 9.824 14.9365 9.824ZM14.8092 0C12.9391 0 11.4272 1.528 11.4272 3.424C11.4272 5.312 12.9391 6.848 14.8092 6.848C16.6792 6.848 18.1912 5.312 18.1912 3.424C18.1912 1.528 16.6792 0 14.8092 0ZM23.7854 0C21.9153 0 20.4034 1.528 20.4034 3.424C20.4034 5.312 21.9153 6.848 23.7854 6.848C25.6554 6.848 27.1753 5.312 27.1753 3.424C27.1753 1.528 25.6554 0 23.7854 0ZM6.65258 0C4.78254 0 3.26263 1.528 3.26263 3.424C3.26263 5.312 4.78254 6.848 6.65258 6.848C8.52263 6.848 10.0346 5.312 10.0346 3.424C10.0346 1.528 8.52263 0 6.65258 0ZM6.77195 24.912C6.77195 20.368 10.4325 16.664 14.9365 16.664C19.4325 16.664 23.0931 20.368 23.0931 24.912C23.0931 29.456 19.4325 33.152 14.9365 33.152C10.4325 33.152 6.77195 29.456 6.77195 24.912ZM85.9266 24.912C85.9266 20.368 89.5871 16.664 94.0911 16.664C98.5871 16.664 102.248 20.368 102.248 24.912C102.248 29.456 98.5871 33.152 94.0911 33.152C89.5871 33.152 85.9266 29.456 85.9266 24.912Z" fill="white"/>
</svg>
