<svg width="908" height="799" viewBox="0 0 908 799" fill="none" xmlns="http://www.w3.org/2000/svg">
<path opacity="0.6" fill-rule="evenodd" clip-rule="evenodd" d="M411.705 796.63C492.399 808.689 569.165 765.334 638.754 722.815C713.746 676.994 785.893 623.69 824.105 544.65C865.96 458.077 911.513 346.691 859.801 265.597C806.679 182.291 673.039 218.461 586.074 171.375C517.249 134.111 488.81 36.5836 411.705 22.9815C331.343 8.80471 244.59 44.139 185.954 100.79C130.514 154.353 140.302 242.145 111.088 313.423C78.3181 393.376 -22.9984 461.06 4.75922 542.882C32.5965 624.938 155.595 615.71 229.209 661.612C295.04 702.66 334.939 785.158 411.705 796.63Z" fill="url(#paint0_linear)"/>
<path fill-rule="evenodd" clip-rule="evenodd" d="M490.021 3.0732C408.293 -9.13761 330.544 34.7627 260.064 77.8171C184.111 124.215 111.04 178.189 72.3382 258.224C29.9471 345.887 -16.1892 458.675 36.1854 540.789C89.9883 625.143 225.339 588.518 313.418 636.197C383.125 673.93 411.928 772.685 490.021 786.458C571.413 800.813 659.277 765.034 718.664 707.67C774.814 653.433 764.901 564.536 794.489 492.361C827.679 411.402 930.293 342.866 902.18 260.015C873.986 176.926 749.412 186.27 674.855 139.79C608.18 98.2255 567.771 14.6897 490.021 3.0732Z" stroke="url(#paint1_linear)"/>
<defs>
<linearGradient id="paint0_linear" x1="2.46672e-06" y1="409.263" x2="882.874" y2="409.263" gradientUnits="userSpaceOnUse">
<stop stop-color="#AC32C6"/>
<stop offset="1" stop-color="#6C42C0"/>
</linearGradient>
<linearGradient id="paint1_linear" x1="907" y1="395.315" x2="12.8171" y2="395.315" gradientUnits="userSpaceOnUse">
<stop stop-color="#AC32C6"/>
<stop offset="1" stop-color="#6C42C0"/>
</linearGradient>
</defs>
</svg>
